{
  "description": "a extraction zone",
  "type": "object",
  "properties": {
    "name": {
      "type": "string",
      "required": true
    },
    "clean_container": {
      "type": "object",
      "properties": {
        "capacity": {
          "type": "number",
          "required": true
        },
        "actual_quantity": {
          "type": "number",
          "required": true
        }
      },
      "required": true
    },
    "dirty_container": {
      "type": "object",
      "properties": {
        "capacity": {
          "type": "number",
          "required": true
        },
        "actual_quantity": {
          "type": "number",
          "required": true
        }
      },
      "required": true
    },
    "extraction_pit": {
      "type": "object",
      "properties": {
        "water_demand": {
          "type": "number",
          "required": true
        },
        "dirtywater_produced": {
          "type": "number",
          "required": true
        },
        "mix_produced": {
          "type": "number",
          "required": true
        },
        "gas_to_extract": {
          "type": "number",
          "required": true
        }
      },
      "required": true
    },
    "position": {
      "type": "object",
      "properties": {
        "x": {
          "type": "number",
          "required": true
        },
        "y": {
          "type": "number",
          "required": true
        },
        "z": {
          "type": "number",
          "required": true
        }
      },
      "required": true
    },
    "clean_fill_flow": {
      "type": "number"
    },
    "dirty_drain_flow": {
      "type": "number"
    },
    "waiting_percent_clean": {
      "type": "number"
    },
    "waiting_percent_dirty": {
      "type": "number"
    }
  }
}
